{
  "iisSettings": {
    "windowsAuthentication": false,
    "anonymousAuthentication": true,
    "iisExpress": {
      "applicationUrl": "http://localhost:6740/",
      "sslPort": 44390
    }
  },
  "profiles": {
    "IIS Express": {
      "commandName": "IISExpress",
      "launchBrowser": true,
      "launchUrl": "app/index",
      "environmentVariables": {
        "MailSettings__ToAddress": "viktor.soltis@gmail.com",
        "ASPNETCORE_ENVIRONMENT": "Development"
      }
    },
    "accounting.code.webapi": {
      "commandName": "Project",
      "launchBrowser": true,
      "launchUrl": "http://localhost:5001",
      "environmentVariables": {
        "ASPNETCORE_ENVIRONMENT": "Development"
      }
    }
  }
}